hw4 stat128
…
df <- df[-1,]
spec(df)

NULL

There are 137,728 rows and 6 columns in the dataset.

2. What does an observation represent?

#Dataset documentation
#https://waterdata.usgs.gov/nwis/?tab_delimited_format_info

df

# A tibble: 137,727 × 6
   agency_cd  site_no datetime         tz_cd temperature qual 
   <chr>        <dbl> <chr>            <chr> <chr>       <chr>
 1 USGS      11446980 2020-09-23 00:00 PDT   20.7        A    
 2 USGS      11446980 2020-09-23 00:15 PDT   20.6        A    
 3 USGS      11446980 2020-09-23 00:30 PDT   20.6        A    
 4 USGS      11446980 2020-09-23 00:45 PDT   20.5        A    
 5 USGS      11446980 2020-09-23 01:00 PDT   20.4        A    
 6 USGS      11446980 2020-09-23 01:15 PDT   20.4        A    
 7 USGS      11446980 2020-09-23 01:30 PDT   20.3        A    
 8 USGS      11446980 2020-09-23 01:45 PDT   20.2        A    
 9 USGS      11446980 2020-09-23 02:00 PDT   20.2        A    
10 USGS      11446980 2020-09-23 02:15 PDT   20.1        A    
# ℹ 137,717 more rows
…
qual referring to the data qualification status from the USGS, as described in their Tab-delimited output-format description:

   # Data-value qualification codes included in this output: 
   #     A  Approved for publication -- Processing and review completed.  
   #     P  Provisional data subject to revision.  
   #     e  Value has been estimated.  

Hint: the row starting with 5s is a problem.

water <- df |>
  subset(select = c(datetime, temperature, qual))

water

# A tibble: 137,727 × 3
   datetime         temperature qual 
   <chr>            <chr>       <chr>
 1 2020-09-23 00:00 20.7        A    
 2 2020-09-23 00:15 20.6        A    
 3 2020-09-23 00:30 20.6        A    
 4 2020-09-23 00:45 20.5        A    
 5 2020-09-23 01:00 20.4        A    
 6 2020-09-23 01:15 20.4        A    
 7 2020-09-23 01:30 20.3        A    
 8 2020-09-23 01:45 20.2        A    
 9 2020-09-23 02:00 20.2        A    
10 2020-09-23 02:15 20.1        A    
# ℹ 137,717 more rows
…
Warning: There were 1448 warnings in `summarize()`.
The first warning was:
ℹ In argument: `avg_temp = mean(temperature)`.
ℹ In group 1: `datetime = "2020-09-23"`.
Caused by warning in `mean.default()`:
! argument is not numeric or logical: returning NA
ℹ Run `dplyr::last_dplyr_warnings()` to see the 1447 remaining warnings.

# A tibble: 1,448 × 3
   datetime   `n()` avg_temp
   <chr>      <int>    <dbl>
 1 2020-09-23    96       NA
 2 2020-09-24    96       NA
 3 2020-09-25    96       NA
 4 2020-09-26    96       NA
 5 2020-09-27    96       NA
 6 2020-09-28    96       NA
 7 2020-09-29    96       NA
 8 2020-09-30    96       NA
 9 2020-10-01    96       NA
10 2020-10-02    96       NA
# ℹ 1,438 more rows
…
